{
  "main.css": "static/css/main.71fef6af.css",
  "main.css.map": "static/css/main.71fef6af.css.map",
  "main.js": "static/js/main.930a5f91.js",
  "main.js.map": "static/js/main.930a5f91.js.map",
  "static\\media\\logo.svg": "static/media/logo.5d5d9eef.svg"
}